


${Ansi.RED} __________________________________/\\\________/\\\___/\\\\____________/\\\\___/\\\\\\\\\\\\\\\___/\\\\\\\\\\\\\\\_________/\\\\\\\\\___/\\\________/\\\_
${Ansi.RED}  ___________/\\\___/\\\___________\/\\\_____/\\\//___\/\\\\\\________/\\\\\\__\///////\\\/////___\/\\\///////////_______/\\\////////___\/\\\_______\/\\\_
${Ansi.RED}   ________/\\\//___\////\\\________\/\\\__/\\\//______\/\\\//\\\____/\\\//\\\________\/\\\________\/\\\________________/\\\/____________\/\\\_______\/\\\_
${Ansi.RED}    _____/\\\//_________\////\\\_____\/\\\\\\//\\\______\/\\\\///\\\/\\\/_\/\\\________\/\\\________\/\\\\\\\\\\\_______/\\\______________\/\\\\\\\\\\\\\\\_
${Ansi.RED}     __/\\\//_______________\////\\\__\/\\\//_\//\\\_____\/\\\__\///\\\/___\/\\\________\/\\\________\/\\\///////_______\/\\\______________\/\\\/////////\\\_
${Ansi.RED}      _\////\\\_______________/\\\//___\/\\\____\//\\\____\/\\\____\///_____\/\\\________\/\\\________\/\\\______________\//\\\_____________\/\\\_______\/\\\_
${Ansi.RED}       ____\////\\\_________/\\\//______\/\\\_____\//\\\___\/\\\_____________\/\\\________\/\\\________\/\\\_______________\///\\\___________\/\\\_______\/\\\_
${Ansi.RED}        _______\////\\\___/\\\//_________\/\\\______\//\\\__\/\\\_____________\/\\\________\/\\\________\/\\\\\\\\\\\\\\\_____\////\\\\\\\\\__\/\\\_______\/\\\_
${Ansi.RED}         __________\///___\///____________\///________\///___\///______________\///_________\///_________\///////////////_________\/////////___\///________\///__


